…
```r
##piping it to knitr::kable() makes the table look pretty
```
## Question 1
### What specialties do we have?
There are 40 specialties in total within this dataset. The specialties do not seem to be evenly distributed: surgery, cardiovascular, consult, and orthopedic have the most amount of entries.

```r
mtsamples %>% count(medical_specialty)
```

```
## # A tibble: 40 × 2
##    medical_specialty                 n
##    <chr>                         <int>
##  1 " Allergy / Immunology"           7
##  2 " Autopsy"                        8
##  3 " Bariatrics"                    18
##  4 " Cardiovascular / Pulmonary"   372
##  5 " Chiropractic"                  14
##  6 " Consult - History and Phy."   516
##  7 " Cosmetic / Plastic Surgery"    27
##  8 " Dentistry"                     27
##  9 " Dermatology"                   29
## 10 " Diets and Nutritions"          10
## # … with 30 more rows
```
…
